…
#### 2.2

We now look at the standard error, statistic, and p value of our
variables in both models. Then, we assess the accuracy of our models by
looking at the adjusted R-squared.

``` r
tidy(model_other)
```

    ## Warning in summary.lm(x): essentially perfect fit: summary may be unreliable

    ## # A tibble: 27 × 5
    ##    term                    estimate std.error statistic    p.value
    ##    <chr>                      <dbl>     <dbl>     <dbl>      <dbl>
    ##  1 (Intercept)             1   e+ 0  3.75e-16  2.67e+15 0         
    ##  2 radius_mean            -4.45e-16  1.35e-16 -3.29e+ 0 0.00108   
    ##  3 texture_mean            5.43e-18  6.98e-18  7.78e- 1 0.437     
    ##  4 perimeter_mean          5.51e-17  2.09e-17  2.64e+ 0 0.00854   
    ##  5 area_mean               1.44e-18  3.03e-19  4.76e+ 0 0.00000245
    ##  6 smoothness_mean         2.84e-15  1.69e-15  1.68e+ 0 0.0936    
    ##  7 compactness_mean       -2.40e-15  1.18e-15 -2.04e+ 0 0.0421    
    ##  8 concavity_mean         -1.70e-15  6.48e-16 -2.62e+ 0 0.00913   
    ##  9 symmetry_mean           8.46e-16  6.52e-16  1.30e+ 0 0.195     
    ## 10 fractal_dimension_mean -4.01e-15  4.96e-15 -8.08e- 1 0.419     
    ## # … with 17 more rows
…
## Exercise 3 : Reading and writing data

#### 3.1

We take a summary table from milestone 2, and write it as a csv file in
the output folder. To do so, we use the here() function.

``` r
category_corr #this is the summary table from milestone 2
```

    ## # A tibble: 31 × 3
    ##    variable            corr_with_diagnosis category 
    ##    <chr>                             <dbl> <fct>    
    ##  1 ID                               0.0398 Very Low 
    ##  2 radius_mean                      0.730  High     
    ##  3 texture_mean                     0.415  Medium   
    ##  4 perimeter_mean                   0.743  High     
    ##  5 area_mean                        0.709  High     
    ##  6 smoothness_mean                  0.359  Low      
    ##  7 compactness_mean                 0.597  Medium   
    ##  8 concavity_mean                   0.696  High     
    ##  9 concave_points_mean              0.777  Very High
    ## 10 symmetry_mean                    0.330  Low      
    ## # … with 21 more rows
…
``` r
tidy(readRDS(here("output", "model_other.rds")))
```

    ## Warning in summary.lm(x): essentially perfect fit: summary may be unreliable

    ## # A tibble: 27 × 5
    ##    term                    estimate std.error statistic    p.value
    ##    <chr>                      <dbl>     <dbl>     <dbl>      <dbl>
    ##  1 (Intercept)             1   e+ 0  3.75e-16  2.67e+15 0         
    ##  2 radius_mean            -4.45e-16  1.35e-16 -3.29e+ 0 0.00108   
    ##  3 texture_mean            5.43e-18  6.98e-18  7.78e- 1 0.437     
    ##  4 perimeter_mean          5.51e-17  2.09e-17  2.64e+ 0 0.00854   
    ##  5 area_mean               1.44e-18  3.03e-19  4.76e+ 0 0.00000245
    ##  6 smoothness_mean         2.84e-15  1.69e-15  1.68e+ 0 0.0936    
    ##  7 compactness_mean       -2.40e-15  1.18e-15 -2.04e+ 0 0.0421    
    ##  8 concavity_mean         -1.70e-15  6.48e-16 -2.62e+ 0 0.00913   
    ##  9 symmetry_mean           8.46e-16  6.52e-16  1.30e+ 0 0.195     
    ## 10 fractal_dimension_mean -4.01e-15  4.96e-15 -8.08e- 1 0.419     
    ## # … with 17 more rows
…
