…
``` r
cancer_sample_numeric <- cancer_sample %>% replace(cancer_sample=="M","1") %>% replace(cancer_sample=="B","0") %>% transform(diagnosis=as.numeric(diagnosis))
cancer_sample_cormatrix = cor(cancer_sample_numeric)
```

``` r
cormatrix_df <- as_cordf(cancer_sample_cormatrix)
cormatrix_df
```

    ## # A tibble: 32 × 33
    ##    term           ID diagnosis radius_mean texture_mean perimeter_mean area_mean
    ##    <chr>       <dbl>     <dbl>       <dbl>        <dbl>          <dbl>     <dbl>
    ##  1 ID       NA          0.0398      0.0746       0.0998         0.0732    0.0969
    ##  2 diagnos…  3.98e-2   NA           0.730        0.415          0.743     0.709 
    ##  3 radius_…  7.46e-2    0.730      NA            0.324          0.998     0.987 
    ##  4 texture…  9.98e-2    0.415       0.324       NA              0.330     0.321 
    ##  5 perimet…  7.32e-2    0.743       0.998        0.330         NA         0.987 
    ##  6 area_me…  9.69e-2    0.709       0.987        0.321          0.987    NA     
    ##  7 smoothn… -1.30e-2    0.359       0.171       -0.0234         0.207     0.177 
    ##  8 compact…  9.57e-5    0.597       0.506        0.237          0.557     0.499 
    ##  9 concavi…  5.01e-2    0.696       0.677        0.302          0.716     0.686 
    ## 10 concave…  4.42e-2    0.777       0.823        0.293          0.851     0.823 
    ## # … with 22 more rows, and 26 more variables: smoothness_mean <dbl>,
    ## #   compactness_mean <dbl>, concavity_mean <dbl>, concave_points_mean <dbl>,
    ## #   symmetry_mean <dbl>, fractal_dimension_mean <dbl>, radius_se <dbl>,
    ## #   texture_se <dbl>, perimeter_se <dbl>, area_se <dbl>, smoothness_se <dbl>,
    ## #   compactness_se <dbl>, concavity_se <dbl>, concave_points_se <dbl>,
    ## #   symmetry_se <dbl>, fractal_dimension_se <dbl>, radius_worst <dbl>,
    ## #   texture_worst <dbl>, perimeter_worst <dbl>, area_worst <dbl>, …

We can then split the correlation coefficients into 3 categories : High,
Medium and Low. This allows us to understand the influence of the
existing variables on the cancer diagnosis. We illustrate this splitting
using a bar graph.

``` r
category_corr <- cormatrix_df %>% mutate(category=cut(diagnosis, breaks=c(-Inf,0.33, 0.66, Inf), labels=c("Low", "Medium", "High"))) %>% select(term, diagnosis, category) %>% filter(!is.na(diagnosis)) %>% rename(variable=term, corr_with_diagnosis=diagnosis)
category_corr
```

    ## # A tibble: 31 × 3
    ##    variable            corr_with_diagnosis category
    ##    <chr>                             <dbl> <fct>   
    ##  1 ID                               0.0398 Low     
    ##  2 radius_mean                      0.730  High    
    ##  3 texture_mean                     0.415  Medium  
    ##  4 perimeter_mean                   0.743  High    
    ##  5 area_mean                        0.709  High    
    ##  6 smoothness_mean                  0.359  Medium  
    ##  7 compactness_mean                 0.597  Medium  
    ##  8 concavity_mean                   0.696  High    
    ##  9 concave_points_mean              0.777  High    
    ## 10 symmetry_mean                    0.330  Medium  
    ## # … with 21 more rows
…
### Task 2.1

We select 2 columns of mean, se and worst along with the diagnosis
column. This gives us a subset of the data to analyze which,
structurally speaking, represents the whole dataset. We see that this
data is not exactly tidy, since some columns are different statistics
(mean, standard deviation, worst) of the same measurement (radius,
texture). This is actually the “wide” version of our data.

``` r
data_subset <- select(cancer_sample, diagnosis:texture_mean, radius_se:texture_se, radius_worst:texture_worst)
data_subset
```

    ## # A tibble: 569 × 7
    ##    diagnosis radius_mean texture_mean radius_se texture_se radius_worst
    ##    <chr>           <dbl>        <dbl>     <dbl>      <dbl>        <dbl>
    ##  1 M                18.0         10.4     1.10       0.905         25.4
    ##  2 M                20.6         17.8     0.544      0.734         25.0
    ##  3 M                19.7         21.2     0.746      0.787         23.6
    ##  4 M                11.4         20.4     0.496      1.16          14.9
    ##  5 M                20.3         14.3     0.757      0.781         22.5
    ##  6 M                12.4         15.7     0.334      0.890         15.5
    ##  7 M                18.2         20.0     0.447      0.773         22.9
    ##  8 M                13.7         20.8     0.584      1.38          17.1
    ##  9 M                13           21.8     0.306      1.00          15.5
    ## 10 M                12.5         24.0     0.298      1.60          15.1
    ## # … with 559 more rows, and 1 more variable: texture_worst <dbl>

### Task 2.2

To make our data tidy, we make it “long” so that every column is a
variable, every row is an observation, and every cell is a single value.

``` r
data_subset %>% pivot_longer(!diagnosis, names_to=c("Measurement", "Statistic"), names_sep="_", values_to = "Value")
```

    ## # A tibble: 3,414 × 4
    ##    diagnosis Measurement Statistic  Value
    ##    <chr>     <chr>       <chr>      <dbl>
    ##  1 M         radius      mean      18.0  
    ##  2 M         texture     mean      10.4  
    ##  3 M         radius      se         1.10 
    ##  4 M         texture     se         0.905
    ##  5 M         radius      worst     25.4  
    ##  6 M         texture     worst     17.3  
    ##  7 M         radius      mean      20.6  
    ##  8 M         texture     mean      17.8  
    ##  9 M         radius      se         0.544
    ## 10 M         texture     se         0.734
    ## # … with 3,404 more rows
…
